   0.550    1.085   1   10    0.00  02:56:18  KBOW  
   0.580    1.357   1   10    0.00  02:56:49  KANA  
   0.950    1.641   1   10    0.00  02:57:20  KMTX  
   2.500    7.164   1   10    0.02  02:57:51  WWV   
   5.000   14.483   1   10    0.09  02:58:21  WWV   
   7.850   22.729   1   10    0.17  02:58:52  CHU   
  10.000   29.130   1   10    0.01  02:59:23  WWV   
  15.000   43.395   1   10    0.04  02:59:54  WWV   
